{
    "page":1,
    "per_page":3,
    "total":12,
    "total_pages":4,
    "data":
    [
        {
            "id":1,
            "title":"Rxjs Start",
            "avatar":"./assets/img/git_img.png",
            "subtitle": "this is about Git introduction...",
            "text": "<div>let's start for Rxjs ...</div>",
            "link": null
        },
        {
            "id":2,
            "title":"Rxjs end",
            "avatar":"./assets/img/git_img.png",
            "subtitle": "this is about Git introduction...",
            "text": "<div>start end of Rxjs...</div>",
            "link": null
        }
    ]
}