{
    "page":1,
    "per_page":3,
    "total":12,
    "total_pages":4,
    "data":
    [
        {
            "id":1,
            "title":"Git",
            "subtitle": "this is about Git introduction...",
            "avatar":"./assets/img/git_img.png",
            "introduction": "this is about Git introduction...",
            "text": "<div class='alert alert-warning'><p>从本地获取远程分支</p><kbd>$ git checkout -b local-name origin/remote-name</kbd></div><div class='alert alert-warning'><p>查看本地用户名和邮箱</p><kbd>$ git config user.name</br>$ git config user.email</kbd></div><div class='alert alert-warning'><p>删除本地分支</p><kbd>$ git branch -d <branch-name></kbd></div><div class='alert alert-warning'><p>强行删除本地分支（如果没有完全合并）</p><kbd>$ git branch -D <branch-name></kbd></div><div class='alert alert-warning'><p>删除远程分支</p><kbd>$ git push origin --delete <branch-name></kbd></div>",
            "link": null
        },
        {
            "id":2,
            "title":"Angular2",
            "subtitle": "this is about Angular2 introduction...",
            "avatar":"./assets/img/angular2_img.png",
            "introduction": "this is about Angular2 introduction...",
            "text": "<img class='img-fluid ng-banner' src='./../../../assets/img/overview2.png' alt='angular2'><div class='row ng-article'><div class='col-sm-6'><img class='img-fluid' src='./../../../assets/img/speed1.svg' alt=''></div><div class='col-sm-6'><h3>开发跨平台应用</h3><p>学习通过Angular来构建应用程序，并重复利用你的代码和能力来构建可在任何平台上部署的应用。这些平台可以是PC站点、移动站点、PC本地应用和移动本地应用等。</p></div></div><div class='row'><div class='col-sm-6'><h3>速度与性能</h3><p>实现当前Web平台最大可能的速度，并更近一步提升，通过Web Worker和服务端渲染技术。 Angular让你在扩展性上可以控制。比如说，通过RxJS、Immutable.js或者其他推模式建立数据模型来满足大数据需求。</p></div><div class='col-sm-6'><img class='img-fluid' src='./../../../assets/img/speed2.svg' alt=''></div></div><div class='row'><div class='col-sm-6'><img class='img-fluid' src='./../../../assets/img/speed3.png' alt=''></div><div class='col-sm-6'><h3>难以置信的工具</h3><p>通过简单的声明模板快速构建特性。通过你自己的组件和利用大量现有组件，扩展模板语言。在几乎所有的IDE和编辑器里可以立即获得针对Angular的帮助和提示。当这一切在一起，你可以将注意力集中在如何打造你惊艳的App上面，而不是尝试如何使代码工作。</p></div></div><div class='row'><div class='col-sm-6'><h3>众多粉丝的喜爱</h3><p>从原型开始到最后的全球上线部署，Angular提供了富有生产力和可扩展性的基础设施来支持Google大量的应用。</p></div><div class='col-sm-6'><img class='img-fluid' src='./../../../assets/img/speed4.png' alt=''></div></div>",
            "link": "/pages/articleangular"
        },
        {
            "id":3,
            "title":"Rxjs",
            "subtitle": "this is about Rxjs introduction...",
            "avatar":"./assets/img/rxjs.png",
            "introduction": "this is about Rxjs introduction...",
            "text": "dsadada",
            "link": "/pages/articlerxjs"
        },
        {
            "id":4,
            "title":"Bootstrap",
            "subtitle":"this is about Bootstrap introduction...",
            "avatar":"./assets/img/bootstrap.png",
            "introduction": "<p class='text-center'>this is about Bootstrap introduction...</p>",
            "text": "<h3>bootstrap@4.0.0-beta:<a href='http://getbootstrap.com/' target='blank'>document</a></h3><p>Install Bootstrap in your Node powered apps with the npm package:</p><kbd>npm install bootstrap@4.0.0-beta</kbd></br></br></br><h3>bootstrap -v 4.0.0.alpha6:<a href='http://v4-alpha.getbootstrap.com/' target='blank'>document</a></h3><p>Install Bootstrap in your Node powered apps with the npm package:</p><kbd>npm install bootstrap@4.0.0-alpha.6</kbd>",
            "link": null
        },
        {
            "id":5,
            "title":"Angular2-baidu-map API",
            "subtitle": "this is Angular2-baidu-map API details",
            "avatar":"./assets/img/icon-bg.jpg",
            "introduction": "<p class='text-center'>Get the details code in <a href='https://github.com/mangguoaidami/angular2-baidu-map'>GitHub</a></p>",
            "text": "<div class='map container'><div class='alert alert-success'><h4>API<span class='badge badge-default'>参考</span></h4><a href='##'>mangguoaidami-github</a><h3>attributes</h3><table class='table table-bordered table-hover'><thead><tr><th>Param</th><th>Type</th><th>Details</th></tr></thead><tbody><tr><td>ak</td><td><span>string</span></td><td>百度开发者应用的ak <a href='http://lbsyun.baidu.com/apiconsole/key' target='_blank'>Baidu Developer</a></td></tr><tr><td>protocol</td><td><span>string</span></td><td>协议，你想指定如何加载百度地图。 可选择： <kbd>http:</kbd><kbd>https:</kbd></td></tr><tr><td>options</td><td><span>MapOptions</span></td><td>用于绘制地图的选项</td></tr><tr><td>offline</td><td><span>OfflineOptions</span></td><td>在无网络可用时应用的选项</td></tr><tr><td>onMapLoaded</td><td><span>Expression</span></td><td>表达式在回调时进行评估，（Event对象可用作map实例）</td></tr><tr><td>onMarkerClicked</td><td><span>Expression</span></td><td>Expression在回调时进行评估，（Event对象可用作标记实例）</td></tr><tr><td>onClicked</td><td><span>Expression</span></td><td>表达式来评估回调，（事件对象是地图点击的事件实例）</td></tr></tbody></table></div><div class='section'><h3>MapOptions</h3><table class='table table-bordered table-striped'><thead><tr><th>Param</th><th>Type</th><th>Required</th><th>Description</th><th>Example</th></tr></thead><tbody><tr><td>center</td><td><span>Object</span></td><td>Yes</td><td>地理坐标点</td><td><pre><kbd>{longitude121.506191,latitude:31.245554</kbd></pre></td></tr><tr><td>zoom</td><td><span>Number</span></td><td>No</td><td>缩放级别将显示在地图上。 默认为1 <kbd>10</kbd></td><td><pre><kbd><span>15</span></kbd></pre></td></tr><tr><td>navCtrl</td><td><span>NavigationControlOptions || Boolean</span></td><td>No</td><td>将一个NavigationControl添加到地图。 默认为 <kbd>true</kbd></td><td><pre><kbd><span>false</span></kbd></pre></td></tr><tr><td>scaleCtrl</td><td><span>ScaleControlOptions || Boolean</span></td><td>No</td><td>添加ScaleControl到地图。 默认为 <kbd>true</kbd></td><td><pre><kbd><span>false</span></kbd></pre></td></tr><tr><td>overviewCtrl</td><td><span>OverviewMapControlOptions || Boolean</span></td><td>No</td><td>向地图添加一个OverviewMapControl。 默认为true <kbd>true</kbd></td><td><pre><kbd><span>false</span></kbd></pre></td></tr><tr><td>enableScrollWheelZoom</td><td><span>Boolean</span></td><td>No</td><td>是否将ScrollWheelZoom启用到地图。 默认为 <kbd>true</kbd></td><td><pre><kbd><span>false</span></kbd></pre></td></tr><tr><td>geolocationCtrl</td><td><span>GeolocationControlOptions || Boolean</span></td><td>No</td><td>将地理位置控件添加到地图</td><td></td></tr><tr><td>markers</td><td><span>Marker[]</span></td><td>No</td><td>标记将显示在地图上。 默认为空 <kbd>empty</kbd></td><td></td></tr></tbody></table></div><div class='section'><h3>Marker</h3><table class='table table-bordered table-striped'><thead><tr><th>Param</th><th>Type</th><th>Required</th><th>Description</th><th>Example</th></tr></thead><tbody><tr><td>longitude</td><td><span>Number</span></td><td>Yes</td><td>地理坐标的经度</td><td><pre><kbd><span>121.506191</span></kbd></pre></td></tr><tr><td>latitude</td><td><span>Number</span></td><td>Yes</td><td>地理坐标的纬度</td><td><pre><kbd><span>31.245554</span></kbd></pre></td></tr><tr><td>icon</td><td><span>String</span></td><td>No</td><td>自定义ICON的URL</td><td><pre><kbd>http<span>:</span><span>/</span><span>/</span>xxx<span>/</span>url<span>.</span>png</kbd></pre></td></tr><tr><td>width</td><td><span>Number</span></td><td>No</td><td>marker宽度</td><td><pre><kbd><span>100</span></kbd></pre></td></tr><tr><td>height</td><td><span>Number</span></td><td>No</td><td>高度marker</td><td><pre><kbd><span>100</span></kbd></pre></td></tr><tr><td>title</td><td><span>String</span></td><td>No</td><td>BMap.InfoWindow的标题，将通过点击标记显示</td><td><pre><kbd>Where</kbd></pre></td></tr><tr><td>content</td><td><span>String</span></td><td>No</td><td>BMap.InfoWindow的内容，将通过点击标记显示</td><td><pre><kbd>Put description here</kbd></pre></td></tr><tr><td>enableMessage</td><td><span>Boolean</span></td><td>No</td><td>是否在BMap.InfoWindow中启用SMS</td><td><pre><kbd><span>true</span></kbd></pre></td></tr><tr><td>autoDisplayInfoWindow</td><td><span>Boolean</span></td><td>No</td><td>是否显示BMap.InfoWindow以及Marker</td><td><pre><kbd><span>true</span></kbd></pre></td></tr><tr><td>enableDragging</td><td><span>Boolean</span></td><td>No</td><td>是否为标记启用可拖动功能</td><td><pre><kbd><span>true</span></kbd></pre></td></tr></tbody></table></div><div class='section'><h3>OfflineOptions<span>离线选项</span></h3><table class='table table-bordered table-striped'><thead><tr><th>Param</th><th>Type</th><th>Required</th><th>Description</th><th>Example</th></tr></thead><tbody><tr><td>retryInterval</td><td><span class='number-type'>Number</span></td><td>No</td><td>i如果网络可用，则用于重试的间隔。 默认为30000ms</td><td><pre><kbd><span>5000</span></kbd></pre></td></tr><tr><td>txt</td><td><span class='string-type'>String</span></td><td>No</td><td>在无网络可用的情况下显示的文本。 默认为“离线”</td><td><pre><kbd>NO<span class='token operator'>-</span>NETWORK</kbd></pre></td></tr></tbody></table></div><div class='section'><h3>GeolocationControlOptions<span class='subtitle'>地理位置控制选项</span></h3><table class='table table-bordered table-striped'><thead><tr><th>Param</th><th>Type</th><th>Required</th><th>Description</th><th>Example</th></tr></thead><tbody><tr><td>anchor</td><td><span class='enum-type'>ControlAnchor</span></td><td>No</td><td>在哪里放置GeoLocaltionControl</td><td><pre><kbd>ControlAnchor<span>.</span>BMAP_ANCHOR_TOP_LEFT</kbd></pre></td></tr><tr><td>offset</td><td><span class='object-type'>Size</span></td><td>No</td><td>GeoLocaltionControl的水平偏移</td><td><pre><kbd><span>{</span> width<span>:</span> <span>100</span><span>,</span> height<span>:</span> <span>100</span><span>}</span></kbd></pre></td></tr><tr><td>showAddressBar</td><td><span class='boolean-type'>Boolean</span></td><td>No</td><td>是否显示控制面板</td><td><pre><kbd><span class='token boolean'>true</span></kbd></pre></td></tr><tr><td>enableAutoLocation</td><td><span class='boolean-type'>Boolean</span></td><td>No</td><td>是否定位添加地图</td><td><pre><kbd><span class='token boolean'>true</span></kbd></pre></td></tr><tr><td>locationIcon</td><td><span class='object-type'>Icon</span></td><td>No</td><td>自定义图标</td><td><pre><kbd><span>{</span> url<span>:</span> <span class='token string'>'http://wwww/xx.png'</span><span>,</span> size<span>:</span> <span>{</span> width<span>:</span> <span>50</span><span>,</span> height<span>:</span> <span>50</span><span>}</span> <span>}</span></kbd></pre></td></tr></tbody></table></div><div class='section'><h3>NavigationControlOptions<span>导航控制选项</span></h3><table class='table table-bordered table-striped'><thead><tr><th>Param</th><th>Type</th><th>Required</th><th>Description</th><th>Example</th></tr></thead><tbody><tr><td>anchor</td><td><span class='enum-type'>ControlAnchor</span></td><td>No</td><td>在哪里放置NavigationControl</td><td><pre><kbd>ControlAnchor<span>.</span>BMAP_ANCHOR_TOP_LEFT</kbd></pre></td></tr><tr><td>offset</td><td><span class='object-type'>Size</span></td><td>No</td><td>NavigationControl的水平偏移</td><td><pre><kbd><span>{</span> width<span>:</span> <span>100</span><span>,</span> height<span>:</span> <span>100</span><span>}</span></kbd></pre></td></tr><tr><td>type</td><td><span class='enum-type'>NavigationControlType</span></td><td>No</td><td>指定显示的NavigationControl的类型</td><td><pre><kbd>NavigationControlType<span>.</span>BMAP_NAVIGATION_CONTROL_SMALL</kbd></pre></td></tr><tr><td>showZoomInfo</td><td><span class='boolean-type'>Boolean</span></td><td>No</td><td>是否显示缩放信息</td><td><pre><kbd><span class='token boolean'>true</span></kbd></pre></td></tr><tr><td>enableGeolocation</td><td><span class='boolean-type'>Boolean</span></td><td>No</td><td>是否启用地理位置功能</td><td><pre><kbd><span class='token boolean'>true</span></kbd></pre></td></tr></tbody></table></div><div class='section'><h3>OverviewMapControlOptions <span>概述地图控制选项</span></h3><table class='table table-bordered table-striped'><thead><tr><th>Param</th><th>Type</th><th>Required</th><th>Description</th><th>Example</th></tr></thead><tbody><tr><td>anchor</td><td><span class='enum-type'>ControlAnchor</span></td><td>No</td><td>在哪里放置OverviewMapControl</td><td><pre><kbd>ControlAnchor<span>.</span>BMAP_ANCHOR_TOP_LEFT</kbd></pre></td></tr><tr><td>offset</td><td><span class='object-type'>Size</span></td><td>No</td><td>OverviewMapControl的水平偏移量</td><td><pre><kbd><span>{</span> width<span>:</span> <span>100</span><span>,</span> height<span>:</span> <span>100</span><span>}</span></kbd></pre></td></tr><tr><td>size</td><td><span class='object-type'>Size</span></td><td>No</td><td>指定显示的OverviewMapControl的大小</td><td><pre><kbd><span>{</span> width<span>:</span> <span>100</span><span>,</span> height<span>:</span> <span>100</span> <span>}</span></kbd></pre></td></tr><tr><td>isOpen</td><td><span class='boolean-type'>Boolean</span></td><td>No</td><td>是否显示OverviewMapControl一次地图显示</td><td><pre><kbd><span class='token boolean'>true</span></kbd></pre></td></tr></tbody></table></div><div class='section'><h3>ScaleControlOptions <span>比例控制选项</span></h3><table class='table table-bordered table-striped'><thead><tr><th>Param</th><th>Type</th><th>Required</th><th>Description</th><th>Example</th></tr></thead><tbody><tr><td>anchor</td><td><span class='enum-type'>ControlAnchor</span></td><td>No</td><td>放置ScaleControl的位置</td><td><pre><kbd>ControlAnchor<span>.</span>BMAP_ANCHOR_TOP_LEFT</kbd></pre></td></tr><tr><td>offset</td><td><span class='object-type'>Size</span></td><td>No</td><td>ScaleControl的水平偏移</td><td><pre><kbd><span>{</span> width<span>:</span> <span>100</span><span>,</span> height<span>:</span> <span>100</span><span>}</span></kbd></pre></td></tr></tbody></table></div><div class='section'><h3>PolylineOptions <span>线段控制选项</span></h3><table class='table table-bordered table-striped'><thead><tr><th>Param</th><th>Type</th><th>Required</th><th>Description</th><th>Example</th></tr></thead><tbody><tr><td>strokeColor</td><td><span class='enum-type'>String</span></td><td>No</td><td>折线颜色</td><td><pre><kbd>strokeColor:'red',</kbd></pre></td></tr><tr><td>strokeWeight</td><td><span class='object-type'>Number</span></td><td>No</td><td>折线的宽度，以像素为单位</td><td><pre><kbd>strokeWeight:5, </kbd></pre></td></tr><tr><td>strokeOpacity</td><td><span class='object-type'>Number</span></td><td>No</td><td>折线的透明度，取值范围0 - 1</td><td><pre><kbd>strokeOpacity:0.5</kbd></pre></td></tr><tr><td>strokeStyle</td><td><span class='object-type'>String</span></td><td>No</td><td>折线的样式，solid或dashed</td><td><pre><kbd>strokeStyle:“solid”</kbd></pre></td></tr></tbody></table></div></div>",
            "link": null
        }
    ]
}