{
    "page":1,
    "per_page":3,
    "total":12,
    "total_pages":4,
    "data":
    [
        {
            "id":1,
            "title":"Start",
            "avatar":"./assets/img/git_img.png",
            "subtitle": "this is about Git introduction...",
            "text": "<div>let's start ...</div>",
            "link": null
        },
        {
            "id":2,
            "title":"Component",
            "avatar":"./assets/img/git_img.png",
            "subtitle": "this is about Git introduction...",
            "text": "<div>start end...</div>",
            "link": null
        }
    ]
}