{
    "page":1,
    "per_page":3,
    "total":12,
    "total_pages":4,
    "data":
    [
        {
            "id":1,
            "title":"Git",
            "last_name":"bluth",
            "avatar":"./assets/img/git_img.png",
            "introduction": "this is about Git introduction..."
        },
        {
            "id":2,
            "title":"Angular2",
            "last_name":"bluth",
            "avatar":"./assets/img/angular2_img.png",
            "introduction": "this is about Angular2 introduction..."
        },
        {
            "id":3,
            "title":"More",
            "last_name":"bluth",
            "avatar":"./assets/img/git_img.png",
            "introduction": "this is about More introduction..."
        }
    ]
}